{
  "t": "zoroaster -a",
  "test": "scripts t test/spec",
  "d": "scripts-s d1 externs",
  "b": "alamode src/lambda.js -o build -s",
  "c": "depack src/lambda/depack -c -a -p -o compile/lambda.js -S",
  "d1": "typal types/index.js -u",
  "externs": "typal types/externs.js -e",
  "types": "typal types/index.js -u"
}